…
In this structure, the cells can be found by filtering.

``` r
x[x$data_type == "character", c("address", "character")]
#> # A tibble: 22 x 2
#>    address character
#>    <chr>   <chr>    
#>  1 C1      Age      
#>  2 D1      Child    
#>  3 F1      Adult    
#>  4 C2      Survived 
#>  5 D2      No       
#>  6 E2      Yes      
#>  7 F2      No       
#>  8 G2      Yes      
#>  9 A3      Class    
#> 10 B3      Sex      
#> # … with 12 more rows
…
### Formulas

Formulas are available, but with a few quirks.

``` r
options(width = 120)
y <- xlsx_cells(examples, "Sheet1")
y[!is.na(y$formula),
  c("address", "formula", "is_array", "formula_ref", "formula_group",
    "error", "logical", "numeric", "date", "character")]
#> # A tibble: 32 x 10
#>    address formula           is_array formula_ref formula_group error   logical numeric date                character   
#>    <chr>   <chr>             <lgl>    <chr>               <int> <chr>   <lgl>     <dbl> <dttm>              <chr>       
#>  1 A1      1/0               FALSE    <NA>                   NA #DIV/0! NA           NA NA                  <NA>        
#>  2 A14     1=1               FALSE    <NA>                   NA <NA>    TRUE         NA NA                  <NA>        
#>  3 A15     A4+1              FALSE    <NA>                   NA <NA>    NA         1338 NA                  <NA>        
#>  4 A16     DATE(2017,1,18)   FALSE    <NA>                   NA <NA>    NA           NA 2017-01-18 00:00:00 <NA>        
#>  5 A17     "\"Hello, World!… FALSE    <NA>                   NA <NA>    NA           NA NA                  Hello, Worl…
#>  6 A19     $A$18+1           FALSE    <NA>                   NA <NA>    NA            2 NA                  <NA>        
#>  7 B19     A18+2             FALSE    <NA>                   NA <NA>    NA            3 NA                  <NA>        
#>  8 A20     $A$18+1           FALSE    A20:A21                 0 <NA>    NA            2 NA                  <NA>        
#>  9 B20     A19+2             FALSE    B20:B21                 1 <NA>    NA            4 NA                  <NA>        
#> 10 A21     $A$18+1           FALSE    <NA>                    0 <NA>    NA            2 NA                  <NA>        
#> # … with 22 more rows
```
…
