Detecting Spreadsheet Smells with xlex() • tidyxl
…
(Compensation/MonthsToDate)*12Months-FuturePayments

Many formulas

The xlex() function isn’t vectorized (because it returns a data frame), so we map it over each of the formulas to create a ‘nest’ column of individual data frames.

tokens <-
  sheet %>%
  filter(!is.na(formula)) %>%
  select(row, col, formula) %>%
  mutate(tokens = map(formula, xlex)) %>%
  select(-formula)
tokens

## # A tibble: 154 x 3
##      row   col tokens          
##    <int> <int> <list>          
##  1     8     4 <tibble [9 × 3]>
##  2     9     4 <tibble [7 × 3]>
##  3    10     4 <tibble [7 × 3]>
##  4    12     4 <tibble [7 × 3]>
##  5    13     4 <tibble [7 × 3]>
##  6    14     3 <tibble [4 × 3]>
##  7    14     4 <tibble [4 × 3]>
##  8    14     5 <tibble [4 × 3]>
##  9    14     6 <tibble [4 × 3]>
## 10    17     4 <tibble [7 × 3]>
## # … with 144 more rows

Then we can unnest the data frames and filter for tokens that are constants, to find out which cells have constants in their formulas.

constants <-
  tokens %>%
  unnest(tokens) %>%
  filter(type %in% c("error", "bool", "number", "text"))
constants

## # A tibble: 201 x 5
##      row   col level type   token
##    <int> <int> <int> <chr>  <chr>
##  1     8     4     1 number 7    
##  2     8     4     0 number 12   
##  3     8     4     0 number 48000
##  4     9     4     1 number 7    
##  5     9     4     0 number 12   
##  6    10     4     1 number 7    
##  7    10     4     0 number 12   
##  8    12     4     1 number 7    
##  9    12     4     0 number 12   
## 10    13     4     1 number 7    
## # … with 191 more rows
…
A final step is to visualize the spreadsheet, highlighting cells that hide constants in their formulas. We already have a data frame of cells with constants, so we join it back to the full dataset, and pass the result into ggplot.

This time there doesn’t seem to be any particular pattern, which is perhaps suspicious in itself.

has_constants <-
  constants %>%
  distinct(row, col) %>%
  mutate(has_constant = TRUE) %>%
  right_join(sheet, by = c("row", "col")) %>%
  filter(!is_blank) %>%
  select(row, col, has_constant) %>%
  replace_na(list(has_constant = FALSE))
has_constants

## # A tibble: 412 x 3
##      row   col has_constant
##    <int> <int> <lgl>       
##  1     8     4 TRUE        
##  2     9     4 TRUE        
##  3    10     4 TRUE        
##  4    12     4 TRUE        
##  5    13     4 TRUE        
##  6    17     4 TRUE        
##  7    17     6 TRUE        
##  8    18     4 TRUE        
##  9    19     4 TRUE        
## 10    20     4 TRUE        
## # … with 402 more rows
…
## Warning: 'tidy_xlsx()' is deprecated.
## Use 'xlsx_cells()' or 'xlsx_formats()' instead.

deepest <-
  sheet %>%
    filter(!is.na(formula)) %>%
    mutate(tokens = map(formula, xlex)) %>%
    select(row, col, tokens) %>%
    unnest(tokens) %>%
    filter(level == max(level)) %>%
    distinct(row, col, level)
deepest

## # A tibble: 48 x 3
##      row   col level
##    <int> <int> <int>
##  1   171     2     7
##  2   171     3     7
##  3   171     4     7
##  4   171     5     7
##  5   171     6     7
##  6   171     7     7
##  7   171     8     7
##  8   171     9     7
##  9   171    10     7
## 10   171    11     7
## # … with 38 more rows
…
