Tidyxl • tidyxl
…
In this structure, the cells can be found by filtering.

x[x$data_type == "character", c("address", "character")]
#> # A tibble: 22 x 2
#>    address character
#>      <chr>     <chr>
#>  1      C1       Age
#>  2      D1     Child
#>  3      F1     Adult
#>  4      C2  Survived
#>  5      D2        No
#>  6      E2       Yes
#>  7      F2        No
#>  8      G2       Yes
#>  9      A3     Class
#> 10      B3       Sex
#> # ... with 12 more rows
…
Formulas

Formulas are available, but with a few quirks.

options(width = 120)
y <- tidy_xlsx(system.file("/extdata/examples.xlsx", package = "tidyxl"),
               "Sheet1")$data[[1]]
y[!is.na(y$formula),
  c("address", "formula", "formula_type", "formula_ref", "formula_group",
    "error", "logical", "numeric", "date", "character")]
#> # A tibble: 24 x 10
#>    address             formula formula_type formula_ref formula_group   error logical numeric       date     character
#>      <chr>               <chr>        <chr>       <chr>         <int>   <chr>   <lgl>   <dbl>     <dttm>         <chr>
#>  1      A1                 1/0         <NA>        <NA>            NA #DIV/0!      NA      NA         NA          <NA>
#>  2     A14                 1=1         <NA>        <NA>            NA    <NA>    TRUE      NA         NA          <NA>
#>  3     A15                A4+1         <NA>        <NA>            NA    <NA>      NA    1338         NA          <NA>
#>  4     A16     DATE(2017,1,18)         <NA>        <NA>            NA    <NA>      NA      NA 2017-01-18          <NA>
#>  5     A17 "\"Hello, World!\""         <NA>        <NA>            NA    <NA>      NA      NA         NA Hello, World!
#>  6     A19             $A$18+1         <NA>        <NA>            NA    <NA>      NA       2         NA          <NA>
#>  7     B19               A18+2         <NA>        <NA>            NA    <NA>      NA       3         NA          <NA>
#>  8     A20             $A$18+1       shared     A20:A21             0    <NA>      NA       2         NA          <NA>
#>  9     B20               A19+2       shared     B20:B21             1    <NA>      NA       4         NA          <NA>
#> 10     A21             $A$18+1       shared        <NA>             0    <NA>      NA       2         NA          <NA>
#> # ... with 14 more rows
…
